[{"tSize":"small","keyname" : "No of CPU", "defaultvalue" : "2,4,6,0","datatype":"String"},
{"tSize":"small","keyname" : "RAM", "defaultvalue" : "12,14,16","datatype":"String"},
{"tSize":"medium","keyname" : "No of CPU", "defaultvalue" : "1,3,5","datatype":"String"},
{"tSize":"medium","keyname" : "RAM", "defaultvalue" : "11,12,15","datatype":"String"}]

